Case-Study zur Arbeitslosigkeit in Deutschland
…
.panel1-einlesen_alo-auto[

``` r
alo_skip <- read_xlsx(alo_name, sheet = "Gesamt", skip = 8)

*alo_skip
```
]
 
.panel2-einlesen_alo-auto[

```
## # A tibble: 11,233 × 27
##    ...1  Jahresdurchschnitte ...3  Rechtskreis Insgesam…¹ ...5  ...6  ...7  ...8  ...9  ...10 ...11 ...12 ...13 ...14 ...15 Rechtskreis Insgesam…²
##    <chr> <chr>               <chr> <chr>                  <chr> <chr> <chr> <chr> <chr> <chr> <chr> <chr> <chr> <chr> <chr> <chr>                 
##  1 <NA>  Jahresdurch-schnitt Jahr… 43831                  43862 43891 43922 43952 43983 44013 44044 44075 44105 44136 44166 44197                 
##  2 Regi… 2020                2021  1                      2     3     4     5     6     7     8     9     10    11    12    13                    
##  3 Deut… 2695444.0833333335  2613… 2425523                2395… 2335… 2643… 2812… 2853… 2910… 2955… 2847… 2759… 2699… 2707… 2900663               
##  4 01 S… 92139.666666666672  8886… 85827                  85007 81837 92188 97207 96704 98778 97552 93961 92174 91617 92824 98931                 
##  5 0100… 4721.75             4369… 4421                   4393  4286  4897  5132  5075  5198  4958  4721  4522  4514  4544  4852                  
##  6 0100… 4721.75             4369… 4421                   4393  4286  4897  5132  5075  5198  4958  4721  4522  4514  4544  4852                  
##  7 0100… 11776.166666666666  1109… 10791                  10733 10522 11589 12170 12431 12808 12720 12400 12022 11622 11506 12070                 
##  8 0100… 11776.166666666666  1109… 10791                  10733 10522 11589 12170 12431 12808 12720 12400 12022 11622 11506 12070                 
##  9 0100… 9404                9346… 8605                   8425  8305  9585  10078 9959  10093 9907  9592  9418  9396  9485  10073                 
## 10 0100… 9404                9346… 8605                   8425  8305  9585  10078 9959  10093 9907  9592  9418  9396  9485  10073                 
## # ℹ 11,223 more rows
## # ℹ abbreviated names: ¹​`Rechtskreis Insgesamt - Bestand an Arbeitslosen - Gesamt...4`,
## #   ²​`Rechtskreis Insgesamt - Bestand an Arbeitslosen - Gesamt...16`
## # ℹ 11 more variables: ...17 <chr>, ...18 <chr>, ...19 <chr>, ...20 <chr>, ...21 <chr>, ...22 <chr>, ...23 <chr>, ...24 <chr>, ...25 <chr>,
## #   ...26 <chr>, ...27 <chr>
```
…
.panel1-einlesen_alo-auto[

``` r
alo_skip <- read_xlsx(alo_name, sheet = "Gesamt", skip = 8)

alo_skip %>%
* select(c(`...1`, Jahresdurchschnitte, `...3`))
```
]
 
.panel2-einlesen_alo-auto[

```
## # A tibble: 11,233 × 3
##    ...1                            Jahresdurchschnitte ...3               
##    <chr>                           <chr>               <chr>              
##  1 <NA>                            Jahresdurch-schnitt Jahresdurch-schnitt
##  2 Region                          2020                2021               
##  3 Deutschland                     2695444.0833333335  2613489            
##  4 01 Schleswig-Holstein           92139.666666666672  88864.75           
##  5 01001 Flensburg, Stadt          4721.75             4369.166666666667  
##  6 01001000 Flensburg, Stadt       4721.75             4369.166666666667  
##  7 01002 Kiel, Landeshauptstadt    11776.166666666666  11096.833333333334 
##  8 01002000 Kiel, Landeshauptstadt 11776.166666666666  11096.833333333334 
##  9 01003 Lübeck, Hansestadt        9404                9346.9166666666661 
## 10 01003000 Lübeck, Hansestadt     9404                9346.9166666666661 
## # ℹ 11,223 more rows
```
…
``` r
alo_skip <- read_xlsx(alo_name, sheet = "Gesamt", skip = 8)

alo_skip %>%
  select(c(`...1`, Jahresdurchschnitte, `...3`)) %>%
* mutate(Regionalschluessel = str_extract(`...1`, "[[:digit:]]+"),
*        Gemeinde = str_extract(`...1`, "[A-Z].*"))
```
]
 
.panel2-einlesen_alo-auto[

```
## # A tibble: 11,233 × 5
##    ...1                            Jahresdurchschnitte ...3                Regionalschluessel Gemeinde              
##    <chr>                           <chr>               <chr>               <chr>              <chr>                 
##  1 <NA>                            Jahresdurch-schnitt Jahresdurch-schnitt <NA>               <NA>                  
##  2 Region                          2020                2021                <NA>               Region                
##  3 Deutschland                     2695444.0833333335  2613489             <NA>               Deutschland           
##  4 01 Schleswig-Holstein           92139.666666666672  88864.75            01                 Schleswig-Holstein    
##  5 01001 Flensburg, Stadt          4721.75             4369.166666666667   01001              Flensburg, Stadt      
##  6 01001000 Flensburg, Stadt       4721.75             4369.166666666667   01001000           Flensburg, Stadt      
##  7 01002 Kiel, Landeshauptstadt    11776.166666666666  11096.833333333334  01002              Kiel, Landeshauptstadt
##  8 01002000 Kiel, Landeshauptstadt 11776.166666666666  11096.833333333334  01002000           Kiel, Landeshauptstadt
##  9 01003 Lübeck, Hansestadt        9404                9346.9166666666661  01003              Lübeck, Hansestadt    
## 10 01003000 Lübeck, Hansestadt     9404                9346.9166666666661  01003000           Lübeck, Hansestadt    
## # ℹ 11,223 more rows
```
…
``` r
alo_skip <- read_xlsx(alo_name, sheet = "Gesamt", skip = 8)

alo_skip %>%
  select(c(`...1`, Jahresdurchschnitte, `...3`)) %>%
  mutate(Regionalschluessel = str_extract(`...1`, "[[:digit:]]+"),
         Gemeinde = str_extract(`...1`, "[A-Z].*")) %>%
* mutate(alo = as.numeric(`...3`))
```
]
 
.panel2-einlesen_alo-auto[

```
## # A tibble: 11,233 × 6
##    ...1                            Jahresdurchschnitte ...3                Regionalschluessel Gemeinde                    alo
##    <chr>                           <chr>               <chr>               <chr>              <chr>                     <dbl>
##  1 <NA>                            Jahresdurch-schnitt Jahresdurch-schnitt <NA>               <NA>                        NA 
##  2 Region                          2020                2021                <NA>               Region                    2021 
##  3 Deutschland                     2695444.0833333335  2613489             <NA>               Deutschland            2613489 
##  4 01 Schleswig-Holstein           92139.666666666672  88864.75            01                 Schleswig-Holstein       88865.
##  5 01001 Flensburg, Stadt          4721.75             4369.166666666667   01001              Flensburg, Stadt          4369.
##  6 01001000 Flensburg, Stadt       4721.75             4369.166666666667   01001000           Flensburg, Stadt          4369.
##  7 01002 Kiel, Landeshauptstadt    11776.166666666666  11096.833333333334  01002              Kiel, Landeshauptstadt   11097.
##  8 01002000 Kiel, Landeshauptstadt 11776.166666666666  11096.833333333334  01002000           Kiel, Landeshauptstadt   11097.
##  9 01003 Lübeck, Hansestadt        9404                9346.9166666666661  01003              Lübeck, Hansestadt        9347.
## 10 01003000 Lübeck, Hansestadt     9404                9346.9166666666661  01003000           Lübeck, Hansestadt        9347.
## # ℹ 11,223 more rows
```
…
alo_skip %>%
  select(c(`...1`, Jahresdurchschnitte, `...3`)) %>%
  mutate(Regionalschluessel = str_extract(`...1`, "[[:digit:]]+"),
         Gemeinde = str_extract(`...1`, "[A-Z].*")) %>%
  mutate(alo = as.numeric(`...3`)) %>%
* select(-c(`...1`, Jahresdurchschnitte, `...3`))
```
]
 
.panel2-einlesen_alo-auto[

```
## # A tibble: 11,233 × 3
##    Regionalschluessel Gemeinde                    alo
##    <chr>              <chr>                     <dbl>
##  1 <NA>               <NA>                        NA 
##  2 <NA>               Region                    2021 
##  3 <NA>               Deutschland            2613489 
##  4 01                 Schleswig-Holstein       88865.
##  5 01001              Flensburg, Stadt          4369.
##  6 01001000           Flensburg, Stadt          4369.
##  7 01002              Kiel, Landeshauptstadt   11097.
##  8 01002000           Kiel, Landeshauptstadt   11097.
##  9 01003              Lübeck, Hansestadt        9347.
## 10 01003000           Lübeck, Hansestadt        9347.
## # ℹ 11,223 more rows
```
…
alo_skip %>%
  select(c(`...1`, Jahresdurchschnitte, `...3`)) %>%
  mutate(Regionalschluessel = str_extract(`...1`, "[[:digit:]]+"),
         Gemeinde = str_extract(`...1`, "[A-Z].*")) %>%
  mutate(alo = as.numeric(`...3`)) %>%
  select(-c(`...1`, Jahresdurchschnitte, `...3`)) %>%
* filter(!is.na(alo))
```
]
 
.panel2-einlesen_alo-auto[

```
## # A tibble: 11,182 × 3
##    Regionalschluessel Gemeinde                    alo
##    <chr>              <chr>                     <dbl>
##  1 <NA>               Region                    2021 
##  2 <NA>               Deutschland            2613489 
##  3 01                 Schleswig-Holstein       88865.
##  4 01001              Flensburg, Stadt          4369.
##  5 01001000           Flensburg, Stadt          4369.
##  6 01002              Kiel, Landeshauptstadt   11097.
##  7 01002000           Kiel, Landeshauptstadt   11097.
##  8 01003              Lübeck, Hansestadt        9347.
##  9 01003000           Lübeck, Hansestadt        9347.
## 10 01004              Neumünster, Stadt         3771.
## # ℹ 11,172 more rows
```
…
alo_skip %>%
  select(c(`...1`, Jahresdurchschnitte, `...3`)) %>%
  mutate(Regionalschluessel = str_extract(`...1`, "[[:digit:]]+"),
         Gemeinde = str_extract(`...1`, "[A-Z].*")) %>%
  mutate(alo = as.numeric(`...3`)) %>%
  select(-c(`...1`, Jahresdurchschnitte, `...3`)) %>%
  filter(!is.na(alo))
```
]
 
.panel2-einlesen_alo-auto[

```
## # A tibble: 11,182 × 3
##    Regionalschluessel Gemeinde                    alo
##    <chr>              <chr>                     <dbl>
##  1 <NA>               Region                    2021 
##  2 <NA>               Deutschland            2613489 
##  3 01                 Schleswig-Holstein       88865.
##  4 01001              Flensburg, Stadt          4369.
##  5 01001000           Flensburg, Stadt          4369.
##  6 01002              Kiel, Landeshauptstadt   11097.
##  7 01002000           Kiel, Landeshauptstadt   11097.
##  8 01003              Lübeck, Hansestadt        9347.
##  9 01003000           Lübeck, Hansestadt        9347.
## 10 01004              Neumünster, Stadt         3771.
## # ℹ 11,172 more rows
```
…
---

count: false

.panel1-konsistenz_alo-auto[

``` r
*data_alo
```
]
 
.panel2-konsistenz_alo-auto[

```
## # A tibble: 11,180 × 3
##    Regionalschluessel Gemeinde                  alo
##    <chr>              <chr>                   <dbl>
##  1 01                 Schleswig-Holstein     88865.
##  2 01001              Flensburg, Stadt        4369.
##  3 01001000           Flensburg, Stadt        4369.
##  4 01002              Kiel, Landeshauptstadt 11097.
##  5 01002000           Kiel, Landeshauptstadt 11097.
##  6 01003              Lübeck, Hansestadt      9347.
##  7 01003000           Lübeck, Hansestadt      9347.
##  8 01004              Neumünster, Stadt       3771.
##  9 01004000           Neumünster, Stadt       3771.
## 10 01051              Dithmarschen            4143.
## # ℹ 11,170 more rows
```
…
---

count: false

.panel1-interne_konsistenz1-auto[

``` r
*data_alo
```
]
 
.panel2-interne_konsistenz1-auto[

```
## # A tibble: 11,180 × 3
##    Regionalschluessel Gemeinde                  alo
##    <chr>              <chr>                   <dbl>
##  1 01                 Schleswig-Holstein     88865.
##  2 01001              Flensburg, Stadt        4369.
##  3 01001000           Flensburg, Stadt        4369.
##  4 01002              Kiel, Landeshauptstadt 11097.
##  5 01002000           Kiel, Landeshauptstadt 11097.
##  6 01003              Lübeck, Hansestadt      9347.
##  7 01003000           Lübeck, Hansestadt      9347.
##  8 01004              Neumünster, Stadt       3771.
##  9 01004000           Neumünster, Stadt       3771.
## 10 01051              Dithmarschen            4143.
## # ℹ 11,170 more rows
```
…
---
count: false

.panel1-interne_konsistenz1-auto[

``` r
data_alo %>%
* filter(nchar(Regionalschluessel) == 8)
```
]
 
.panel2-interne_konsistenz1-auto[

```
## # A tibble: 10,741 × 3
##    Regionalschluessel Gemeinde                    alo
##    <chr>              <chr>                     <dbl>
##  1 01001000           Flensburg, Stadt        4369.  
##  2 01002000           Kiel, Landeshauptstadt 11097.  
##  3 01003000           Lübeck, Hansestadt      9347.  
##  4 01004000           Neumünster, Stadt       3771.  
##  5 01051001           Albersdorf               122.  
##  6 01051002           Arkebek                    5.17
##  7 01051003           Averlak                    8.08
##  8 01051004           Bargenstedt               11.2 
##  9 01051005           Barkenholm                 1.58
## 10 01051006           Barlt                     17.7 
## # ℹ 10,731 more rows
```
…
.panel1-interne_konsistenz1-auto[

``` r
data_alo %>%
  filter(nchar(Regionalschluessel) == 8) %>%
* mutate(landkreis = str_extract(Regionalschluessel, "^.{5}"))
```
]
 
.panel2-interne_konsistenz1-auto[

```
## # A tibble: 10,741 × 4
##    Regionalschluessel Gemeinde                    alo landkreis
##    <chr>              <chr>                     <dbl> <chr>    
##  1 01001000           Flensburg, Stadt        4369.   01001    
##  2 01002000           Kiel, Landeshauptstadt 11097.   01002    
##  3 01003000           Lübeck, Hansestadt      9347.   01003    
##  4 01004000           Neumünster, Stadt       3771.   01004    
##  5 01051001           Albersdorf               122.   01051    
##  6 01051002           Arkebek                    5.17 01051    
##  7 01051003           Averlak                    8.08 01051    
##  8 01051004           Bargenstedt               11.2  01051    
##  9 01051005           Barkenholm                 1.58 01051    
## 10 01051006           Barlt                     17.7  01051    
## # ℹ 10,731 more rows
```
…
.panel1-interne_konsistenz1-auto[

``` r
data_alo %>%
  filter(nchar(Regionalschluessel) == 8) %>%
  mutate(landkreis = str_extract(Regionalschluessel, "^.{5}")) %>%
* mutate(bundesland = str_extract(Regionalschluessel, "^.{2}"))
```
]
 
.panel2-interne_konsistenz1-auto[

```
## # A tibble: 10,741 × 5
##    Regionalschluessel Gemeinde                    alo landkreis bundesland
##    <chr>              <chr>                     <dbl> <chr>     <chr>     
##  1 01001000           Flensburg, Stadt        4369.   01001     01        
##  2 01002000           Kiel, Landeshauptstadt 11097.   01002     01        
##  3 01003000           Lübeck, Hansestadt      9347.   01003     01        
##  4 01004000           Neumünster, Stadt       3771.   01004     01        
##  5 01051001           Albersdorf               122.   01051     01        
##  6 01051002           Arkebek                    5.17 01051     01        
##  7 01051003           Averlak                    8.08 01051     01        
##  8 01051004           Bargenstedt               11.2  01051     01        
##  9 01051005           Barkenholm                 1.58 01051     01        
## 10 01051006           Barlt                     17.7  01051     01        
## # ℹ 10,731 more rows
```
…
---

count: false

.panel1-interne_konsistenz2-auto[

``` r
*alo_meta
```
]
 
.panel2-interne_konsistenz2-auto[

```
## # A tibble: 10,741 × 5
##    Regionalschluessel Gemeinde                    alo landkreis bundesland
##    <chr>              <chr>                     <dbl> <chr>     <chr>     
##  1 01001000           Flensburg, Stadt        4369.   01001     01        
##  2 01002000           Kiel, Landeshauptstadt 11097.   01002     01        
##  3 01003000           Lübeck, Hansestadt      9347.   01003     01        
##  4 01004000           Neumünster, Stadt       3771.   01004     01        
##  5 01051001           Albersdorf               122.   01051     01        
##  6 01051002           Arkebek                    5.17 01051     01        
##  7 01051003           Averlak                    8.08 01051     01        
##  8 01051004           Bargenstedt               11.2  01051     01        
##  9 01051005           Barkenholm                 1.58 01051     01        
## 10 01051006           Barlt                     17.7  01051     01        
## # ℹ 10,731 more rows
```
…
---
count: false

.panel1-interne_konsistenz2-auto[

``` r
alo_meta %>%
* group_by(bundesland)
```
]
 
.panel2-interne_konsistenz2-auto[

```
## # A tibble: 10,741 × 5
## # Groups:   bundesland [16]
##    Regionalschluessel Gemeinde                    alo landkreis bundesland
##    <chr>              <chr>                     <dbl> <chr>     <chr>     
##  1 01001000           Flensburg, Stadt        4369.   01001     01        
##  2 01002000           Kiel, Landeshauptstadt 11097.   01002     01        
##  3 01003000           Lübeck, Hansestadt      9347.   01003     01        
##  4 01004000           Neumünster, Stadt       3771.   01004     01        
##  5 01051001           Albersdorf               122.   01051     01        
##  6 01051002           Arkebek                    5.17 01051     01        
##  7 01051003           Averlak                    8.08 01051     01        
##  8 01051004           Bargenstedt               11.2  01051     01        
##  9 01051005           Barkenholm                 1.58 01051     01        
## 10 01051006           Barlt                     17.7  01051     01        
## # ℹ 10,731 more rows
```
…
---

count: false

.panel1-interne_konsistenz3-auto[

``` r
*alo_meta
```
]
 
.panel2-interne_konsistenz3-auto[

```
## # A tibble: 10,741 × 5
##    Regionalschluessel Gemeinde                    alo landkreis bundesland
##    <chr>              <chr>                     <dbl> <chr>     <chr>     
##  1 01001000           Flensburg, Stadt        4369.   01001     01        
##  2 01002000           Kiel, Landeshauptstadt 11097.   01002     01        
##  3 01003000           Lübeck, Hansestadt      9347.   01003     01        
##  4 01004000           Neumünster, Stadt       3771.   01004     01        
##  5 01051001           Albersdorf               122.   01051     01        
##  6 01051002           Arkebek                    5.17 01051     01        
##  7 01051003           Averlak                    8.08 01051     01        
##  8 01051004           Bargenstedt               11.2  01051     01        
##  9 01051005           Barkenholm                 1.58 01051     01        
## 10 01051006           Barlt                     17.7  01051     01        
## # ℹ 10,731 more rows
```
…
---
count: false

.panel1-interne_konsistenz3-auto[

``` r
alo_meta %>%
* group_by(landkreis)
```
]
 
.panel2-interne_konsistenz3-auto[

```
## # A tibble: 10,741 × 5
## # Groups:   landkreis [400]
##    Regionalschluessel Gemeinde                    alo landkreis bundesland
##    <chr>              <chr>                     <dbl> <chr>     <chr>     
##  1 01001000           Flensburg, Stadt        4369.   01001     01        
##  2 01002000           Kiel, Landeshauptstadt 11097.   01002     01        
##  3 01003000           Lübeck, Hansestadt      9347.   01003     01        
##  4 01004000           Neumünster, Stadt       3771.   01004     01        
##  5 01051001           Albersdorf               122.   01051     01        
##  6 01051002           Arkebek                    5.17 01051     01        
##  7 01051003           Averlak                    8.08 01051     01        
##  8 01051004           Bargenstedt               11.2  01051     01        
##  9 01051005           Barkenholm                 1.58 01051     01        
## 10 01051006           Barlt                     17.7  01051     01        
## # ℹ 10,731 more rows
```
…
