Case-Study zur Arbeitslosigkeit in Deutschland
…
## Die Arbeitslosenquote auf Bundeslandebene

count: false

.panel1-bula_data-auto[

``` r
*gesamtdaten
```
]
 
.panel2-bula_data-auto[

```
## # A tibble: 400 × 12
##    Regionalschluessel total_alo landkreis_name      bundesland bundesland_name  
##    <chr>                  <dbl> <chr>               <chr>      <chr>            
##  1 01001                  3970. Flensburg           01         Schleswig-Holste…
##  2 01002                 10315. Kiel                01         Schleswig-Holste…
##  3 01003                  8776. Lübeck              01         Schleswig-Holste…
##  4 01004                  3359. Neumünster          01         Schleswig-Holste…
##  5 01051                  3858. Dithmarschen        01         Schleswig-Holste…
##  6 01053                  5351. Herzogtum Lauenburg 01         Schleswig-Holste…
##  7 01054                  4155. Nordfriesland       01         Schleswig-Holste…
##  8 01055                  4824. Ostholstein         01         Schleswig-Holste…
##  9 01056                  8547. Pinneberg           01         Schleswig-Holste…
## 10 01057                  2572. Plön                01         Schleswig-Holste…
## # ℹ 390 more rows
## # ℹ 7 more variables: Schulden_pro_kopf_lk <dbl>, Einwohner <dbl>,
## #   Schulden_gesamt <dbl>, bip <dbl>, bip_pro_kopf <dbl>, erw <dbl>,
## #   alo_quote <dbl>
```
…
---
count: false

.panel1-bula_data-auto[

``` r
gesamtdaten %>%
* group_by( bundesland_name )
```
]
 
.panel2-bula_data-auto[

```
## # A tibble: 400 × 12
## # Groups:   bundesland_name [16]
##    Regionalschluessel total_alo landkreis_name      bundesland bundesland_name  
##    <chr>                  <dbl> <chr>               <chr>      <chr>            
##  1 01001                  3970. Flensburg           01         Schleswig-Holste…
##  2 01002                 10315. Kiel                01         Schleswig-Holste…
##  3 01003                  8776. Lübeck              01         Schleswig-Holste…
##  4 01004                  3359. Neumünster          01         Schleswig-Holste…
##  5 01051                  3858. Dithmarschen        01         Schleswig-Holste…
##  6 01053                  5351. Herzogtum Lauenburg 01         Schleswig-Holste…
##  7 01054                  4155. Nordfriesland       01         Schleswig-Holste…
##  8 01055                  4824. Ostholstein         01         Schleswig-Holste…
##  9 01056                  8547. Pinneberg           01         Schleswig-Holste…
## 10 01057                  2572. Plön                01         Schleswig-Holste…
## # ℹ 390 more rows
## # ℹ 7 more variables: Schulden_pro_kopf_lk <dbl>, Einwohner <dbl>,
## #   Schulden_gesamt <dbl>, bip <dbl>, bip_pro_kopf <dbl>, erw <dbl>,
## #   alo_quote <dbl>
```
…
---

count: false

.panel1-ost-auto[

``` r
*gesamtdaten
```
]
 
.panel2-ost-auto[

```
## # A tibble: 400 × 12
##    Regionalschluessel total_alo landkreis_name      bundesland bundesland_name  
##    <chr>                  <dbl> <chr>               <chr>      <chr>            
##  1 01001                  3970. Flensburg           01         Schleswig-Holste…
##  2 01002                 10315. Kiel                01         Schleswig-Holste…
##  3 01003                  8776. Lübeck              01         Schleswig-Holste…
##  4 01004                  3359. Neumünster          01         Schleswig-Holste…
##  5 01051                  3858. Dithmarschen        01         Schleswig-Holste…
##  6 01053                  5351. Herzogtum Lauenburg 01         Schleswig-Holste…
##  7 01054                  4155. Nordfriesland       01         Schleswig-Holste…
##  8 01055                  4824. Ostholstein         01         Schleswig-Holste…
##  9 01056                  8547. Pinneberg           01         Schleswig-Holste…
## 10 01057                  2572. Plön                01         Schleswig-Holste…
## # ℹ 390 more rows
## # ℹ 7 more variables: Schulden_pro_kopf_lk <dbl>, Einwohner <dbl>,
## #   Schulden_gesamt <dbl>, bip <dbl>, bip_pro_kopf <dbl>, erw <dbl>,
## #   alo_quote <dbl>
```
…
.panel1-ost-auto[

``` r
gesamtdaten %>%
* mutate( ost = as.factor(ifelse(bundesland_name %in% c("Brandenburg", "Mecklenburg-Vorpommern", "Sachsen", "Sachsen-Anhalt", "Thüringen"), 1, 0)),
*         ost_name = ifelse(ost == 1, "Ostdeutschland", "Westdeutschland"))
```
]
 
.panel2-ost-auto[

```
## # A tibble: 400 × 14
##    Regionalschluessel total_alo landkreis_name      bundesland bundesland_name  
##    <chr>                  <dbl> <chr>               <chr>      <chr>            
##  1 01001                  3970. Flensburg           01         Schleswig-Holste…
##  2 01002                 10315. Kiel                01         Schleswig-Holste…
##  3 01003                  8776. Lübeck              01         Schleswig-Holste…
##  4 01004                  3359. Neumünster          01         Schleswig-Holste…
##  5 01051                  3858. Dithmarschen        01         Schleswig-Holste…
##  6 01053                  5351. Herzogtum Lauenburg 01         Schleswig-Holste…
##  7 01054                  4155. Nordfriesland       01         Schleswig-Holste…
##  8 01055                  4824. Ostholstein         01         Schleswig-Holste…
##  9 01056                  8547. Pinneberg           01         Schleswig-Holste…
## 10 01057                  2572. Plön                01         Schleswig-Holste…
## # ℹ 390 more rows
## # ℹ 9 more variables: Schulden_pro_kopf_lk <dbl>, Einwohner <dbl>,
## #   Schulden_gesamt <dbl>, bip <dbl>, bip_pro_kopf <dbl>, erw <dbl>,
## #   alo_quote <dbl>, ost <fct>, ost_name <chr>
```
…
---

count: false

.panel1-ost_deskriptiv-auto[

``` r
*gesamtdaten
```
]
 
.panel2-ost_deskriptiv-auto[

```
## # A tibble: 400 × 14
##    Regionalschluessel total_alo landkreis_name      bundesland bundesland_name  
##    <chr>                  <dbl> <chr>               <chr>      <chr>            
##  1 01001                  3970. Flensburg           01         Schleswig-Holste…
##  2 01002                 10315. Kiel                01         Schleswig-Holste…
##  3 01003                  8776. Lübeck              01         Schleswig-Holste…
##  4 01004                  3359. Neumünster          01         Schleswig-Holste…
##  5 01051                  3858. Dithmarschen        01         Schleswig-Holste…
##  6 01053                  5351. Herzogtum Lauenburg 01         Schleswig-Holste…
##  7 01054                  4155. Nordfriesland       01         Schleswig-Holste…
##  8 01055                  4824. Ostholstein         01         Schleswig-Holste…
##  9 01056                  8547. Pinneberg           01         Schleswig-Holste…
## 10 01057                  2572. Plön                01         Schleswig-Holste…
## # ℹ 390 more rows
## # ℹ 9 more variables: Schulden_pro_kopf_lk <dbl>, Einwohner <dbl>,
## #   Schulden_gesamt <dbl>, bip <dbl>, bip_pro_kopf <dbl>, erw <dbl>,
## #   alo_quote <dbl>, ost <fct>, ost_name <chr>
```
…
---
count: false

.panel1-ost_deskriptiv-auto[

``` r
gesamtdaten %>%
* group_by(ost_name)
```
]
 
.panel2-ost_deskriptiv-auto[

```
## # A tibble: 400 × 14
## # Groups:   ost_name [2]
##    Regionalschluessel total_alo landkreis_name      bundesland bundesland_name  
##    <chr>                  <dbl> <chr>               <chr>      <chr>            
##  1 01001                  3970. Flensburg           01         Schleswig-Holste…
##  2 01002                 10315. Kiel                01         Schleswig-Holste…
##  3 01003                  8776. Lübeck              01         Schleswig-Holste…
##  4 01004                  3359. Neumünster          01         Schleswig-Holste…
##  5 01051                  3858. Dithmarschen        01         Schleswig-Holste…
##  6 01053                  5351. Herzogtum Lauenburg 01         Schleswig-Holste…
##  7 01054                  4155. Nordfriesland       01         Schleswig-Holste…
##  8 01055                  4824. Ostholstein         01         Schleswig-Holste…
##  9 01056                  8547. Pinneberg           01         Schleswig-Holste…
## 10 01057                  2572. Plön                01         Schleswig-Holste…
## # ℹ 390 more rows
## # ℹ 9 more variables: Schulden_pro_kopf_lk <dbl>, Einwohner <dbl>,
## #   Schulden_gesamt <dbl>, bip <dbl>, bip_pro_kopf <dbl>, erw <dbl>,
## #   alo_quote <dbl>, ost <fct>, ost_name <chr>
```
…
---

count: false

.panel1-alo_schulden_bip-auto[

``` r
*gesamtdaten
```
]
 
.panel2-alo_schulden_bip-auto[

```
## # A tibble: 400 × 14
##    Regionalschluessel total_alo landkreis_name      bundesland bundesland_name  
##    <chr>                  <dbl> <chr>               <chr>      <chr>            
##  1 01001                  3970. Flensburg           01         Schleswig-Holste…
##  2 01002                 10315. Kiel                01         Schleswig-Holste…
##  3 01003                  8776. Lübeck              01         Schleswig-Holste…
##  4 01004                  3359. Neumünster          01         Schleswig-Holste…
##  5 01051                  3858. Dithmarschen        01         Schleswig-Holste…
##  6 01053                  5351. Herzogtum Lauenburg 01         Schleswig-Holste…
##  7 01054                  4155. Nordfriesland       01         Schleswig-Holste…
##  8 01055                  4824. Ostholstein         01         Schleswig-Holste…
##  9 01056                  8547. Pinneberg           01         Schleswig-Holste…
## 10 01057                  2572. Plön                01         Schleswig-Holste…
## # ℹ 390 more rows
## # ℹ 9 more variables: Schulden_pro_kopf_lk <dbl>, Einwohner <dbl>,
## #   Schulden_gesamt <dbl>, bip <dbl>, bip_pro_kopf <dbl>, erw <dbl>,
## #   alo_quote <dbl>, ost <fct>, ost_name <chr>
```
…
---
count: false

.panel1-alo_schulden_bip-auto[

``` r
gesamtdaten %>%
* group_by( bundesland_name )
```
]
 
.panel2-alo_schulden_bip-auto[

```
## # A tibble: 400 × 14
## # Groups:   bundesland_name [16]
##    Regionalschluessel total_alo landkreis_name      bundesland bundesland_name  
##    <chr>                  <dbl> <chr>               <chr>      <chr>            
##  1 01001                  3970. Flensburg           01         Schleswig-Holste…
##  2 01002                 10315. Kiel                01         Schleswig-Holste…
##  3 01003                  8776. Lübeck              01         Schleswig-Holste…
##  4 01004                  3359. Neumünster          01         Schleswig-Holste…
##  5 01051                  3858. Dithmarschen        01         Schleswig-Holste…
##  6 01053                  5351. Herzogtum Lauenburg 01         Schleswig-Holste…
##  7 01054                  4155. Nordfriesland       01         Schleswig-Holste…
##  8 01055                  4824. Ostholstein         01         Schleswig-Holste…
##  9 01056                  8547. Pinneberg           01         Schleswig-Holste…
## 10 01057                  2572. Plön                01         Schleswig-Holste…
## # ℹ 390 more rows
## # ℹ 9 more variables: Schulden_pro_kopf_lk <dbl>, Einwohner <dbl>,
## #   Schulden_gesamt <dbl>, bip <dbl>, bip_pro_kopf <dbl>, erw <dbl>,
## #   alo_quote <dbl>, ost <fct>, ost_name <chr>
```
…
---

count: false

.panel1-alo_jitter-auto[

``` r
*gesamtdaten
```
]
 
.panel2-alo_jitter-auto[

```
## # A tibble: 400 × 14
##    Regionalschluessel total_alo landkreis_name      bundesland bundesland_name  
##    <chr>                  <dbl> <chr>               <chr>      <chr>            
##  1 01001                  3970. Flensburg           01         Schleswig-Holste…
##  2 01002                 10315. Kiel                01         Schleswig-Holste…
##  3 01003                  8776. Lübeck              01         Schleswig-Holste…
##  4 01004                  3359. Neumünster          01         Schleswig-Holste…
##  5 01051                  3858. Dithmarschen        01         Schleswig-Holste…
##  6 01053                  5351. Herzogtum Lauenburg 01         Schleswig-Holste…
##  7 01054                  4155. Nordfriesland       01         Schleswig-Holste…
##  8 01055                  4824. Ostholstein         01         Schleswig-Holste…
##  9 01056                  8547. Pinneberg           01         Schleswig-Holste…
## 10 01057                  2572. Plön                01         Schleswig-Holste…
## # ℹ 390 more rows
## # ℹ 9 more variables: Schulden_pro_kopf_lk <dbl>, Einwohner <dbl>,
## #   Schulden_gesamt <dbl>, bip <dbl>, bip_pro_kopf <dbl>, erw <dbl>,
## #   alo_quote <dbl>, ost <fct>, ost_name <chr>
```
…
---
count: false

.panel1-alo_jitter-auto[

``` r
gesamtdaten %>%
* select(alo_quote, landkreis_name, bundesland_name, ost_name)
```
]
 
.panel2-alo_jitter-auto[

```
## # A tibble: 400 × 4
##    alo_quote landkreis_name      bundesland_name    ost_name       
##        <dbl> <chr>               <chr>              <chr>          
##  1      6.05 Flensburg           Schleswig-Holstein Westdeutschland
##  2      5.46 Kiel                Schleswig-Holstein Westdeutschland
##  3      6.07 Lübeck              Schleswig-Holstein Westdeutschland
##  4      5.68 Neumünster          Schleswig-Holstein Westdeutschland
##  5      5.80 Dithmarschen        Schleswig-Holstein Westdeutschland
##  6      6.78 Herzogtum Lauenburg Schleswig-Holstein Westdeutschland
##  7      4.21 Nordfriesland       Schleswig-Holstein Westdeutschland
##  8      4.82 Ostholstein         Schleswig-Holstein Westdeutschland
##  9      6.07 Pinneberg           Schleswig-Holstein Westdeutschland
## 10      5.32 Plön                Schleswig-Holstein Westdeutschland
## # ℹ 390 more rows
```
…
.panel1-alo_jitter-auto[

``` r
gesamtdaten %>%
  select(alo_quote, landkreis_name, bundesland_name, ost_name) %>%
* mutate(baden_wuerttemberg = as.factor(ifelse(bundesland_name == "Baden-Württemberg", 1, 0)))
```
]
 
.panel2-alo_jitter-auto[

```
## # A tibble: 400 × 5
##    alo_quote landkreis_name      bundesland_name    ost_name  baden_wuerttemberg
##        <dbl> <chr>               <chr>              <chr>     <fct>             
##  1      6.05 Flensburg           Schleswig-Holstein Westdeut… 0                 
##  2      5.46 Kiel                Schleswig-Holstein Westdeut… 0                 
##  3      6.07 Lübeck              Schleswig-Holstein Westdeut… 0                 
##  4      5.68 Neumünster          Schleswig-Holstein Westdeut… 0                 
##  5      5.80 Dithmarschen        Schleswig-Holstein Westdeut… 0                 
##  6      6.78 Herzogtum Lauenburg Schleswig-Holstein Westdeut… 0                 
##  7      4.21 Nordfriesland       Schleswig-Holstein Westdeut… 0                 
##  8      4.82 Ostholstein         Schleswig-Holstein Westdeut… 0                 
##  9      6.07 Pinneberg           Schleswig-Holstein Westdeut… 0                 
## 10      5.32 Plön                Schleswig-Holstein Westdeut… 0                 
## # ℹ 390 more rows
```
…
---
count: false

.panel1-bip1-auto[

``` r
options(scipen = 5)
*bip_zeitreihe_namen
```
]
 
.panel2-bip1-auto[

```
## # A tibble: 11,940 × 8
##    Regionalschluessel  Jahr         bip einwohner bip_pro_kopf bundesland_name  
##    <chr>              <dbl>       <dbl>     <dbl>        <dbl> <chr>            
##  1 08111               1992 32946884000    593628       55501. Baden-Württemberg
##  2 08115               1992 12090930000    343190       35231. Baden-Württemberg
##  3 08116               1992 12275605000    487370       25187. Baden-Württemberg
##  4 08117               1992  5062037000    248688       20355. Baden-Württemberg
##  5 08118               1992 11714160000    475248       24649. Baden-Württemberg
##  6 08119               1992  8500405000    389670       21814. Baden-Württemberg
##  7 08121               1992  4219259000    118566       35586. Baden-Württemberg
##  8 08125               1992  6073525000    283163       21449. Baden-Württemberg
##  9 08126               1992  2273334000     96072       23663. Baden-Württemberg
## 10 08127               1992  3432175000    169617       20235. Baden-Württemberg
## # ℹ 11,930 more rows
## # ℹ 2 more variables: landkreis_name <chr>, ost_name <chr>
```
…
.panel1-bip1-auto[

``` r
options(scipen = 5)
bip_zeitreihe_namen %>%
* filter( Jahr >= 2000 )
```
]
 
.panel2-bip1-auto[

```
## # A tibble: 9,154 × 8
##    Regionalschluessel  Jahr         bip einwohner bip_pro_kopf bundesland_name  
##    <chr>              <dbl>       <dbl>     <dbl>        <dbl> <chr>            
##  1 08111               2000 35273886000    571528       61719. Baden-Württemberg
##  2 08115               2000 13867882000    359476       38578. Baden-Württemberg
##  3 08116               2000 14404617000    492914       29223. Baden-Württemberg
##  4 08117               2000  6000420000    253970       23626. Baden-Württemberg
##  5 08118               2000 14657540000    492014       29791. Baden-Württemberg
##  6 08119               2000 10367512000    403830       25673. Baden-Württemberg
##  7 08121               2000  5273634000    115590       45624. Baden-Württemberg
##  8 08125               2000  8453750000    316406       26718. Baden-Württemberg
##  9 08126               2000  3083030000    106494       28950. Baden-Württemberg
## 10 08127               2000  4503834000    184222       24448. Baden-Württemberg
## # ℹ 9,144 more rows
## # ℹ 2 more variables: landkreis_name <chr>, ost_name <chr>
```
…
.panel1-bip1-auto[

``` r
options(scipen = 5)
bip_zeitreihe_namen %>%
  filter( Jahr >= 2000 ) %>%
* group_by(ost_name, Jahr)
```
]
 
.panel2-bip1-auto[

```
## # A tibble: 9,154 × 8
## # Groups:   ost_name, Jahr [46]
##    Regionalschluessel  Jahr         bip einwohner bip_pro_kopf bundesland_name  
##    <chr>              <dbl>       <dbl>     <dbl>        <dbl> <chr>            
##  1 08111               2000 35273886000    571528       61719. Baden-Württemberg
##  2 08115               2000 13867882000    359476       38578. Baden-Württemberg
##  3 08116               2000 14404617000    492914       29223. Baden-Württemberg
##  4 08117               2000  6000420000    253970       23626. Baden-Württemberg
##  5 08118               2000 14657540000    492014       29791. Baden-Württemberg
##  6 08119               2000 10367512000    403830       25673. Baden-Württemberg
##  7 08121               2000  5273634000    115590       45624. Baden-Württemberg
##  8 08125               2000  8453750000    316406       26718. Baden-Württemberg
##  9 08126               2000  3083030000    106494       28950. Baden-Württemberg
## 10 08127               2000  4503834000    184222       24448. Baden-Württemberg
## # ℹ 9,144 more rows
## # ℹ 2 more variables: landkreis_name <chr>, ost_name <chr>
```
…
